Заголовок объявления,Адрес,ID объявления,Ввод в эксплуатацию,Застройщик,Группа компаний,Дата публикации проекта,Выдача ключей,Средняя цена за кв.м.,Распроданность квартир,Класс недвижимости,Количество квартир
ЖК OLIVIA,"Краснодарский край, г. Сочи, литера 8",50378,I кв. 2025,ООО СЗ КОНДИ,Альпика Групп,03.02.2023,30.09.2025,458 443 ₽,45%,Бизнес,96
"Жилой квартал ""Тюльпановка""","Краснодарский край, г. Сочи",22618,IV кв. 2025,ООО ГРАДРИЭЛТ,ГрадРиэлт,31.05.2019,30.09.2026,-,-,Комфорт,10
"г. Сочи, ул Володарского, д. 6, литера 8/1","Краснодарский край, г. Сочи, ул Володарского, д. 6, литера 8/1",50636,II кв. 2025,ООО СЗ РЕВЕРС,,21.02.2023,30.04.2025,-,,Бизнес,Нет
"г. Сочи, ул Володарского, д. 6, литера 4","Краснодарский край, г. Сочи, ул Володарского, д. 6, литера 4",52179,IV кв. 2027,ООО СЗ РЕВЕРС,,26.05.2023,25.12.2027,-,,Комфорт,Нет
"ЖК ""Чайные Холмы"" Литер 7","Краснодарский край, город Сочи",46474,III кв. 2025,ООО ЦИК,ЦЕНТРАЛЬНАЯ ИНВЕСТИЦИОННАЯ КОМПАНИЯ,08.06.2022,30.01.2026,-,-,Комфорт,158
"ЖК ""Чайные Холмы"" Литер 1","Краснодарский край, город Сочи, Лазарвский район",46465,III кв. 2025,ООО ЦИК,ЦЕНТРАЛЬНАЯ ИНВЕСТИЦИОННАЯ КОМПАНИЯ,07.06.2022,30.01.2026,83 333 ₽,27%,Комфорт,169
"ЖК ""Чайные Холмы"" Литер 6","Краснодарский край, город Сочи",46473,III кв. 2025,ООО ЦИК,ЦЕНТРАЛЬНАЯ ИНВЕСТИЦИОННАЯ КОМПАНИЯ,08.06.2022,30.01.2026,-,-,Комфорт,158
"Жилой комплекс ""Светский лес"" Литер 7","Краснодарский край, город Г Сочи, Краснодонская",58424,II кв. 2028,ООО СЗ НОВЫЕ ТЕХНОЛОГИИ,ТОЧНО,21.03.2024,31.12.2028,-,,Бизнес,Нет
"г. Сочи, район Хостинский, улица Есауленко","Краснодарский край, г. Сочи, район Хостинский, улица Есауленко",57078,I кв. 2026,ООО СЗ ВОСТОК 314,,25.01.2024,21.06.2026,1 102 989 ₽,,Элитный,Нет
"г. Сочи, ул Володарского, д. 6, литера 4/1","Краснодарский край, г. Сочи, ул Володарского, д. 6, литера 4/1",52180,IV кв. 2027,ООО СЗ РЕВЕРС,,26.05.2023,25.12.2027,-,,Комфорт,Нет
"ЖК МОРЕ, Секция 2","Краснодарский край, город Сочи, район Центральный",53903,III кв. 2026,ООО СЗ КОНТИНЕНТ ИНВЕСТ,,28.08.2023,27.09.2026,406 247 ₽,22%,Бизнес,176
"Жилой квартал ""Тюльпановка""","Краснодарский край, г. Сочи",22584,II кв. 2024,ООО ГРАДРИЭЛТ,ГрадРиэлт,31.05.2019,31.03.2025,194 324 ₽,62%,Комфорт,8
ЖК Кислород,"Краснодарский край, г. Сочи, район Хостинский р-н",39543,II кв. 2025,ООО СЗ КИСЛОРОД,AVA Group,13.04.2021,30.09.2025,452 190 ₽,54%,Бизнес,235
Жилой комплекс Лестория (ЖК Лестория),"Краснодарский край, г. Сочи, район Хостинский р-н, ул Искры, д. 66/10, литера 1",53452,IV кв. 2025,ООО СЗ РОДИНА,Неометрия,28.07.2023,30.06.2026,435 844 ₽,34%,Комфорт,415
Жилой комплекс Лестория (ЖК Лестория),"Краснодарский край, г. Сочи, район Хостинский р-н, ул Искры, д. 66/10, литера 1.1",53455,IV кв. 2025,ООО СЗ РОДИНА,Неометрия,28.07.2023,30.06.2026,-,,Комфорт,Нет
"Гостиничный комплекс ""Поляна Пик""","Краснодарский край, г. Сочи, район Адлерский р-н, ул Защитников Кавказа, д. 77",42373,II кв. 2025,ООО СЗ МЕГАСТРОЙ,Метрополис,26.08.2021,31.12.2025,1 084 434 ₽,,Элитный,Нет
"г. Сочи, район Лазаревский","Краснодарский край, г. Сочи, район Лазаревский",55900,I кв. 2027,АО СЗ ЯКОРНАЯ ЩЕЛЬ,,29.11.2023,09.05.2029,-,,Бизнес,Нет
ЖК Флора (4 этап),"Краснодарский край, г. Сочи, район Хостинский р-н, ул Искры, д. 66/9",53744,IV кв. 2025,ООО СЗ РАФСТРОЙ,Неометрия,17.08.2023,30.06.2026,363 830 ₽,11%,Комфорт,448
"Жилой квартал ""Тюльпановка""","Краснодарский край, г. Сочи",22624,IV кв. 2024,ООО ГРАДРИЭЛТ,ГрадРиэлт,31.05.2019,30.09.2025,255 618 ₽,10%,Комфорт,10
ЖК Горный Квартал,"Краснодарский край, г. Сочи, район Хостинский р-н",47272,III кв. 2026,ООО СЗ БИЗНЕСПРОЕКТ,AVA Group,26.07.2022,31.12.2026,293 289 ₽,9%,Комфорт,60
ЖК Горный Квартал,"Краснодарский край, г. Сочи, район Хостинский р-н",47268,III кв. 2026,ООО СЗ БИЗНЕСПРОЕКТ,AVA Group,26.07.2022,31.12.2026,292 793 ₽,74%,Комфорт,60
"город Сочи, Хостинский район","Краснодарский край, город Сочи, Хостинский район",51251,II кв. 2025,ООО СЗ ЮЖНЫЙ,,05.04.2023,23.11.2025,-,,Комфорт,Нет
"Жилой комплекс ""Светский лес"" Литер 11","Краснодарский край, город Г Сочи, Краснодонская",58420,II кв. 2028,ООО СЗ НОВЫЕ ТЕХНОЛОГИИ,ТОЧНО,21.03.2024,31.12.2028,-,-,Бизнес,462
"Жилой комплекс ""Светский лес"" Литер 10","Краснодарский край, город Г Сочи, Краснодонская",58423,II кв. 2028,ООО СЗ НОВЫЕ ТЕХНОЛОГИИ,ТОЧНО,21.03.2024,31.12.2028,-,-,Бизнес,388
"г. Сочи, район Хостинский, улица Есауленко","Краснодарский край, г. Сочи, район Хостинский, улица Есауленко",57080,I кв. 2026,ООО СЗ ВОСТОК 314,,25.01.2024,21.06.2026,902 245 ₽,,Элитный,Нет
"г. Сочи, район Центральный","Краснодарский край, г. Сочи, район Центральный",54793,IV кв. 2024,ООО СЗ БЦС,,10.10.2023,30.03.2025,-,,Элитный,Нет
"Гостиничный комплекс ""Новая Волна""","Краснодарский край, г. Сочи, ул Ленина, д. 219А",46142,II кв. 2024,ООО СЗ ФАЙВ СТАРС,,17.05.2022,31.03.2025,650 000 ₽,,Элитный,Нет
"ТОЦ ""Океан""","Краснодарский край, г. Сочи, район Адлерский, улица Демократическая, д. 37",32908,III кв. 2024,ООО ОКЕАН,,10.08.2019,01.08.2024,-,,Типовой,Нет
ЖК OLIVIA,"Краснодарский край, г. Сочи, литера 7",50377,I кв. 2025,ООО СЗ КОНДИ,Альпика Групп,03.02.2023,30.09.2025,456 126 ₽,26%,Бизнес,96
ЖК Кислород,"Краснодарский край, г. Сочи, район Хостинский р-н",39550,IV кв. 2025,ООО СЗ КИСЛОРОД,AVA Group,13.04.2021,31.03.2026,371 116 ₽,47%,Бизнес,272
ЖК Южное Море - 2,"Краснодарский край, г. Сочи, район Хостинский р-н, ул Есауленко",58752,II кв. 2026,ООО САТУРН,ВнешОптоТорг,04.04.2024,30.08.2026,-,-,Бизнес,84
"МФК ""Имеретинские высоты""","Краснодарский край, с. Веселое, д. 4",35894,I кв. 2026,ООО СЗ МАРГО,,27.05.2020,30.05.2026,-,,Комфорт,Нет
"г. Сочи, район Хостинский р-н, ул Аллея Челтенхэма","Краснодарский край, г. Сочи, район Хостинский р-н, ул Аллея Челтенхэма",43380,II кв. 2024,ООО СЗ ЛИДЕР+,,01.11.2021,29.10.2024,1 000 000 ₽,,Комфорт,Нет
ЖК Южное Море - 2,"Краснодарский край, г. Сочи, район Хостинский р-н, ул Есауленко",58753,II кв. 2026,ООО САТУРН,ВнешОптоТорг,04.04.2024,30.08.2026,-,-,Бизнес,80
"ЖК МОРЕ , Секция 1","Краснодарский край, город Сочи, район Центральный",53902,III кв. 2026,ООО СЗ КОНТИНЕНТ ИНВЕСТ,,28.08.2023,27.09.2026,527 717 ₽,22%,Бизнес,176
"Жилой квартал ""Тюльпановка""","Краснодарский край, г. Сочи",22583,II кв. 2024,ООО ГРАДРИЭЛТ,ГрадРиэлт,31.05.2019,31.03.2025,96 481 ₽,37%,Комфорт,8
"ЖК ""МАРМЕЛАД""","Краснодарский край, город Сочи",47416,III кв. 2024,ООО СЗ РР ГРУПП,,03.08.2022,09.03.2025,238 882 ₽,39%,Бизнес,107
"ЖК ""Чайные Холмы"" Автостоянка","Краснодарский край, город Сочи, Лазаревский район",46464,III кв. 2025,ООО ЦИК,ЦЕНТРАЛЬНАЯ ИНВЕСТИЦИОННАЯ КОМПАНИЯ,07.06.2022,30.01.2026,-,,Комфорт,Нет
"ЖК ""Чайные Холмы"" Литер 2","Краснодарский край, город Сочи",46466,III кв. 2025,ООО ЦИК,ЦЕНТРАЛЬНАЯ ИНВЕСТИЦИОННАЯ КОМПАНИЯ,07.06.2022,30.01.2026,271 536 ₽,48%,Комфорт,158
"ЖК ""Чайные Холмы"" ЗДО","Краснодарский край, город Сочи, Лазаревский район",46463,III кв. 2025,ООО ЦИК,ЦЕНТРАЛЬНАЯ ИНВЕСТИЦИОННАЯ КОМПАНИЯ,07.06.2022,07.07.2025,-,,Комфорт,Нет
"город Сочи, Улица Крымская, д. 44","Краснодарский край, город Сочи, Улица Крымская, д. 44",59468,IV кв. 2024,ООО СЗ ГК СОЧИОЙЛСТРОЙ,,09.05.2024,30.06.2025,-,,Бизнес,Нет
"Гостиничный комплекс ""Гранд Каскад""","Краснодарский край, г. Сочи, район Центральный р-н, пр-кт Курортный, блок-секция 1,2,3,4,5,6",46664,IV кв. 2024,ООО СЗ КАСКАД,,22.06.2022,21.10.2024,1 488 781 ₽,,Элитный,Нет
"г. Сочи, ул Шоссейная, д. 2","Краснодарский край, г. Сочи, ул Шоссейная, д. 2",48508,III кв. 2027,ООО СЗ КАПИТАЛ,,17.10.2022,04.02.2028,502 027 ₽,,Комфорт,Нет
"г. Сочи, район Адлерский р-н","Краснодарский край, г. Сочи, район Адлерский р-н",53428,IV кв. 2025,ООО СЗ ИЗВЕСТИЯ ХИЛЛ,,27.07.2023,01.10.2025,462 301 ₽,,Бизнес,Нет
"Жилой квартал ""Тюльпановка""","Краснодарский край, г. Сочи",22614,IV кв. 2025,ООО ГРАДРИЭЛТ,ГрадРиэлт,31.05.2019,30.09.2026,-,-,Комфорт,10
"Жилой квартал ""Тюльпановка""","Краснодарский край, г. Сочи",22626,IV кв. 2025,ООО ГРАДРИЭЛТ,ГрадРиэлт,31.05.2019,30.09.2026,-,-,Комфорт,3
"г. Сочи, район Адлерский р-н, ул Искры","Краснодарский край, г. Сочи, район Адлерский р-н, ул Искры",45100,I кв. 2025,ООО СЗ ГРОМИТУС,AVA Group,15.02.2022,30.06.2025,311 327 ₽,,Комфорт,Нет
"Многофункциональный комплекс ""Парк""","Краснодарский край, город Г Сочи, Проспект Курортный",60491,IV кв. 2026,ООО СЗ ИМПЕРИАЛ,,20.06.2024,30.06.2027,-,,Элитный,Нет
"Жилой квартал ""Тюльпановка""","Краснодарский край, г. Сочи",22623,III кв. 2024,ООО ГРАДРИЭЛТ,ГрадРиэлт,31.05.2019,30.06.2025,96 481 ₽,30%,Комфорт,10
Жилой комплекс Лестория (ЖК Лестория),"Краснодарский край, г. Сочи, район Хостинский р-н, ул Искры, д. 66/10, литера 4",53457,II кв. 2026,ООО СЗ РОДИНА,Неометрия,28.07.2023,31.12.2026,-,-,Комфорт,372
ЖК OLIVIA,"Краснодарский край, г. Сочи, район Адлерский",50372,II кв. 2026,ООО СЗ КОНДИ,Альпика Групп,03.02.2023,19.12.2026,-,,Бизнес,Нет
"г. Сочи, ул Володарского, д. 6, литера 10","Краснодарский край, г. Сочи, ул Володарского, д. 6, литера 10",52183,IV кв. 2025,ООО СЗ РЕВЕРС,,26.05.2023,25.12.2027,-,,Комфорт,Нет
ЖК OLIVIA,"Краснодарский край, г. Сочи, литера 5",50376,III кв. 2024,ООО СЗ КОНДИ,Альпика Групп,03.02.2023,30.12.2024,476 523 ₽,28%,Бизнес,192
"город Сочи, Улица Крымская, д. 44","Краснодарский край, город Сочи, Улица Крымская, д. 44",59469,IV кв. 2024,ООО СЗ ГК СОЧИОЙЛСТРОЙ,,09.05.2024,30.06.2025,-,,Бизнес,Нет
"ЖК ""Чайные Холмы"" Литер 8","Краснодарский край, город Сочи",46467,III кв. 2025,ООО ЦИК,ЦЕНТРАЛЬНАЯ ИНВЕСТИЦИОННАЯ КОМПАНИЯ,07.06.2022,30.01.2026,336 525 ₽,42%,Комфорт,169
"Жилой комплекс ""Светский лес"" (Литер 13)","Краснодарский край, город Г Сочи, Краснодонская",58431,II кв. 2028,ООО СЗ НОВЫЕ ТЕХНОЛОГИИ,ТОЧНО,21.03.2024,31.12.2028,-,,Бизнес,Нет
"г. Сочи, район Хостинский, улица Есауленко","Краснодарский край, г. Сочи, район Хостинский, улица Есауленко",57082,I кв. 2026,ООО СЗ ВОСТОК 314,,25.01.2024,21.06.2026,-,,Элитный,Нет
"Гостиничный комплекс ""Новая Волна""","Краснодарский край, г. Сочи, ул Ленина, д. 219А",46144,IV кв. 2024,ООО СЗ ФАЙВ СТАРС,,17.05.2022,31.03.2025,888 847 ₽,,Элитный,Нет
"г. Сочи, ул Володарского, д. 6, литера 20","Краснодарский край, г. Сочи, ул Володарского, д. 6, литера 20",52185,IV кв. 2027,ООО СЗ РЕВЕРС,,26.05.2023,25.12.2027,550 000 ₽,,Комфорт,Нет
"г. Сочи, ул Володарского, д. 6, литера 18","Краснодарский край, г. Сочи, ул Володарского, д. 6, литера 18",52190,IV кв. 2027,ООО СЗ РЕВЕРС,,26.05.2023,25.12.2027,-,,Комфорт,Нет
"Гостиничный комплекс ""Нескучный сад""","Краснодарский край, г Сочи",42574,IV кв. 2024,ООО СЗ ЗЕЛЕНАЯ ГОРКА,Неометрия,07.09.2021,30.06.2025,932 481 ₽,,Бизнес,Нет
"г. Сочи, д. 6, литера 6","Краснодарский край, г. Сочи, д. 6, литера 6",52186,II кв. 2025,ООО СЗ РЕВЕРС,,26.05.2023,25.12.2027,317 663 ₽,,Комфорт,Нет
Жилой комплекс Лестория (ЖК Лестория),"Краснодарский край, г. Сочи, район Хостинский р-н, ул Искры, д. 66/10, литера 2",53453,IV кв. 2025,ООО СЗ РОДИНА,Неометрия,28.07.2023,30.06.2026,411 554 ₽,13%,Комфорт,338
ЖК OLIVIA,"Краснодарский край, г. Сочи, литера 3",50374,III кв. 2024,ООО СЗ КОНДИ,Альпика Групп,03.02.2023,30.12.2024,473 791 ₽,52%,Бизнес,192
"г. Сочи, ул Володарского, д. 6, литера 16","Краснодарский край, г. Сочи, ул Володарского, д. 6, литера 16",52188,IV кв. 2027,ООО СЗ РЕВЕРС,,26.05.2023,25.12.2027,-,,Комфорт,Нет
"г. Сочи, район Хостинский, улица Есауленко","Краснодарский край, г. Сочи, район Хостинский, улица Есауленко",57084,I кв. 2026,ООО СЗ ВОСТОК 314,,25.01.2024,21.06.2026,-,,Элитный,Нет
ЖК Горный Квартал,"Краснодарский край, г. Сочи, район Хостинский р-н",47267,III кв. 2026,ООО СЗ БИЗНЕСПРОЕКТ,AVA Group,26.07.2022,31.12.2026,256 768 ₽,44%,Комфорт,270
"Жилой квартал ""Тюльпановка""","Краснодарский край, г. Сочи",22610,IV кв. 2024,ООО ГРАДРИЭЛТ,ГрадРиэлт,31.05.2019,30.09.2025,221 444 ₽,30%,Комфорт,10
"Гостиничный комплекс ""Нескучный сад""","Краснодарский край, г Сочи",42575,II кв. 2025,ООО СЗ ЗЕЛЕНАЯ ГОРКА,Неометрия,07.09.2021,31.12.2025,667 773 ₽,,Бизнес,Нет
Жилой комплекс Лестория (ЖК Лестория),"Краснодарский край, г. Сочи, район Хостинский р-н, ул Искры, д. 66/10, литера 2.1",53456,IV кв. 2025,ООО СЗ РОДИНА,Неометрия,28.07.2023,30.06.2026,231 363 ₽,,Комфорт,Нет
"г. Сочи, ул Володарского, д. 6, литера 8","Краснодарский край, г. Сочи, ул Володарского, д. 6, литера 8",50635,II кв. 2025,ООО СЗ РЕВЕРС,,21.02.2023,30.04.2025,563 342 ₽,,Бизнес,Нет
"г. Сочи, район Адлерский р-н, ул Искры","Краснодарский край, г. Сочи, район Адлерский р-н, ул Искры",45098,I кв. 2025,ООО СЗ ГРОМИТУС,AVA Group,15.02.2022,30.06.2025,333 201 ₽,58%,Комфорт,426
Жилой комплекс Лестория (ЖК Лестория),"Краснодарский край, г. Сочи, район Хостинский р-н, ул Искры, д. 66/10, литера 4.1",53460,II кв. 2026,ООО СЗ РОДИНА,Неометрия,28.07.2023,31.12.2026,-,,Комфорт,Нет
Жилой комплекс Лестория (ЖК Лестория),"Краснодарский край, г. Сочи, район Хостинский р-н, ул Искры, д. 66/10, литера 3",53454,IV кв. 2025,ООО СЗ РОДИНА,Неометрия,28.07.2023,30.06.2026,396 404 ₽,35%,Комфорт,303
"г. Сочи, район Лазаревский","Краснодарский край, г. Сочи, район Лазаревский",55897,I кв. 2027,АО СЗ ЯКОРНАЯ ЩЕЛЬ,,29.11.2023,09.05.2029,-,,Бизнес,Нет
"г. Сочи, ул Володарского, д. 6, литера 12","Краснодарский край, г. Сочи, ул Володарского, д. 6, литера 12",52176,IV кв. 2027,ООО СЗ РЕВЕРС,,26.05.2023,25.12.2027,350 000 ₽,,Комфорт,Нет
"г. Сочи, район Хостинский, улица Есауленко","Краснодарский край, г. Сочи, район Хостинский, улица Есауленко",57077,I кв. 2026,ООО СЗ ВОСТОК 314,,25.01.2024,21.06.2026,1 243 470 ₽,,Элитный,Нет
"ЖК ""Чайные Холмы"" Литер 5","Краснодарский край, город Сочи",46477,III кв. 2025,ООО ЦИК,ЦЕНТРАЛЬНАЯ ИНВЕСТИЦИОННАЯ КОМПАНИЯ,08.06.2022,30.01.2026,310 000 ₽,12%,Комфорт,158
"г. Сочи, район Адлерский р-н, ул Искры","Краснодарский край, г. Сочи, район Адлерский р-н, ул Искры",45101,I кв. 2025,ООО СЗ ГРОМИТУС,AVA Group,15.02.2022,30.06.2025,-,,Комфорт,Нет
"МФК ""Имеретинские высоты""","Краснодарский край, с. Веселое, д. 2",35892,I кв. 2026,ООО СЗ МАРГО,,27.05.2020,30.05.2026,374 488 ₽,34%,Комфорт,259
"Гостиничный комплекс ""AMAYA RESIDENCE""","Краснодарский край, г. Сочи, район Хостинский, проспект Курортный, д. 108г",46703,I кв. 2026,ООО СЗ КОЛИБРИ,Альпика Групп,24.06.2022,20.09.2026,-,,Элитный,Нет
"г. Сочи, ул Володарского, д. 6, литера 6/1","Краснодарский край, г. Сочи, ул Володарского, д. 6, литера 6/1",52187,II кв. 2025,ООО СЗ РЕВЕРС,,26.05.2023,25.12.2027,-,,Комфорт,Нет
"г. Сочи, ул Крымская, д. 44","Краснодарский край, г. Сочи, ул Крымская, д. 44",51156,II кв. 2026,ООО СЗ ГК СОЧИОЙЛСТРОЙ,,30.03.2023,30.12.2026,939 021 ₽,,Элитный,Нет
ЖК OLIVIA,"Краснодарский край, г. Сочи, литера 9",50380,IV кв. 2025,ООО СЗ КОНДИ,Альпика Групп,03.02.2023,30.06.2026,477 265 ₽,53%,Бизнес,96
"Жилой квартал ""Тюльпановка""","Краснодарский край, г. Сочи",22622,III кв. 2024,ООО ГРАДРИЭЛТ,ГрадРиэлт,31.05.2019,30.06.2025,194 324 ₽,40%,Комфорт,10
"ЖК МОРЕ, автопарковка","Краснодарский край, город Сочи, район Центральный",53905,III кв. 2026,ООО СЗ КОНТИНЕНТ ИНВЕСТ,,28.08.2023,27.09.2026,-,,Комфорт,Нет
"Жилой комплекс ""Светский лес"" Литер 4","Краснодарский край, город Г Сочи, Краснодонская",58425,II кв. 2028,ООО СЗ НОВЫЕ ТЕХНОЛОГИИ,ТОЧНО,21.03.2024,31.12.2028,342 436 ₽,4%,Бизнес,656
"Жилой комплекс ""Светский лес"" Литер 8","Краснодарский край, город Г Сочи, Краснодонская",58422,II кв. 2028,ООО СЗ НОВЫЕ ТЕХНОЛОГИИ,ТОЧНО,21.03.2024,31.12.2028,-,,Бизнес,Нет
"г. Сочи, район Лазаревский","Краснодарский край, г. Сочи, район Лазаревский",55895,I кв. 2027,АО СЗ ЯКОРНАЯ ЩЕЛЬ,,29.11.2023,09.05.2029,590 743 ₽,,Бизнес,Нет
Жилой комплекс Лестория (ЖК Лестория),"Краснодарский край, г. Сочи, район Хостинский р-н, ул Искры, д. 66/10, литера 6",53459,II кв. 2026,ООО СЗ РОДИНА,Неометрия,28.07.2023,31.12.2026,-,-,Комфорт,185
"г. Сочи, ул Крымская, д. 44","Краснодарский край, г. Сочи, ул Крымская, д. 44",51157,II кв. 2026,ООО СЗ ГК СОЧИОЙЛСТРОЙ,,30.03.2023,30.12.2026,524 042 ₽,,Элитный,Нет
ЖК OLIVIA,"Краснодарский край, г. Сочи, литера 11",50382,IV кв. 2025,ООО СЗ КОНДИ,Альпика Групп,03.02.2023,30.06.2026,-,-,Бизнес,96
"г. Сочи, ул Володарского, д. 6, литера 5/1","Краснодарский край, г. Сочи, ул Володарского, д. 6, литера 5/1",52182,II кв. 2025,ООО СЗ РЕВЕРС,,26.05.2023,25.12.2027,-,,Комфорт,Нет
"Гостиничный комплекс ""Новая Волна""","Краснодарский край, г. Сочи, ул Ленина, д. 219А",46143,IV кв. 2024,ООО СЗ ФАЙВ СТАРС,,17.05.2022,31.03.2025,1 127 704 ₽,,Элитный,Нет
"г. Сочи, район Адлерский р-н, ул Искры","Краснодарский край, г. Сочи, район Адлерский р-н, ул Искры",45102,I кв. 2025,ООО СЗ ГРОМИТУС,AVA Group,15.02.2022,30.06.2025,-,,Комфорт,Нет
город Сочи,"Краснодарский край, город Сочи",46117,II кв. 2025,ООО СЗ КРАСМАШЕВСКИЙ,,16.05.2022,30.07.2025,1 449 035 ₽,,Элитный,Нет
ЖК ФЛОРА (3 этап),"Краснодарский край, г. Сочи, Хостинский внутригородской район, улица Искры, д. Участок 66/9, литера 5",41453,II кв. 2024,ООО СЗ РАФСТРОЙ,Неометрия,02.07.2021,30.09.2024,367 474 ₽,60%,Комфорт,296
ЖК OLIVIA,"Краснодарский край, г. Сочи, литера 6",50379,I кв. 2025,ООО СЗ КОНДИ,Альпика Групп,03.02.2023,30.09.2025,444 650 ₽,55%,Бизнес,192
ЖК ФЛОРА (3 этап),"Краснодарский край, г. Сочи, Хостинский внутригородской район, улица Искры, д. Участок 66/9, литера 4",41452,II кв. 2024,ООО СЗ РАФСТРОЙ,Неометрия,02.07.2021,30.09.2024,351 064 ₽,52%,Комфорт,130
ЖК Южное Море - 2,"Краснодарский край, г. Сочи, район Хостинский р-н, ул Есауленко",58754,IV кв. 2026,ООО САТУРН,ВнешОптоТорг,04.04.2024,30.04.2027,-,,Типовой,Нет
"ЖК МОРЕ, трансформаторная подстанция","Краснодарский край, город Сочи, район Центральный",53906,III кв. 2025,ООО СЗ КОНТИНЕНТ ИНВЕСТ,,28.08.2023,30.09.2025,-,,Комфорт,Нет
"Жилой комплекс ""Светский лес"" (Литер 9)","Краснодарский край, город Г Сочи, Краснодонская",58419,II кв. 2028,ООО СЗ НОВЫЕ ТЕХНОЛОГИИ,ТОЧНО,21.03.2024,31.12.2028,-,,Бизнес,Нет
"Жилой комплекс ""Светский лес"" Литер 6","Краснодарский край, город Г Сочи, Краснодонская",58426,II кв. 2028,ООО СЗ НОВЫЕ ТЕХНОЛОГИИ,ТОЧНО,21.03.2024,31.12.2028,-,,Бизнес,Нет
"Гостиничный комплекс ""Поляна Пик""","Краснодарский край, г. Сочи, район Адлерский р-н, ул Защитников Кавказа, д. 77, блок-секция 1,2",42291,II кв. 2025,ООО СЗ МЕГАСТРОЙ,Метрополис,20.08.2021,31.12.2025,-,,Элитный,Нет
"г. Сочи, ул Крымская, д. 44","Краснодарский край, г. Сочи, ул Крымская, д. 44",51158,II кв. 2026,ООО СЗ ГК СОЧИОЙЛСТРОЙ,,30.03.2023,30.12.2026,791 517 ₽,,Элитный,Нет
"Гостиничный комплекс ""AMAYA RESIDENCE""","Краснодарский край, г. Сочи, район Хостинский, проспект Курортный, д. 108г",46700,I кв. 2026,ООО СЗ КОЛИБРИ,Альпика Групп,24.06.2022,20.09.2026,860 000 ₽,,Элитный,Нет
Жилой комплекс Лестория (ЖК Лестория),"Краснодарский край, г. Сочи, район Хостинский р-н, ул Искры, д. 66/10, литера 5",53458,II кв. 2026,ООО СЗ РОДИНА,Неометрия,28.07.2023,31.12.2026,-,-,Комфорт,253
ЖК Кислород,"Краснодарский край, г. Сочи, район Хостинский р-н",39548,IV кв. 2024,ООО СЗ КИСЛОРОД,AVA Group,13.04.2021,31.03.2025,355 443 ₽,44%,Бизнес,307
"г. Сочи, ул Володарского, д. 6, литера 17","Краснодарский край, г. Сочи, ул Володарского, д. 6, литера 17",52189,IV кв. 2027,ООО СЗ РЕВЕРС,,26.05.2023,25.12.2027,-,,Комфорт,Нет
ЖК OLIVIA,"Краснодарский край, г. Сочи, литера 2",50373,III кв. 2024,ООО СЗ КОНДИ,Альпика Групп,03.02.2023,30.12.2024,514 500 ₽,56%,Бизнес,192
"г. Сочи, ул Володарского, д. 6, литера 14","Краснодарский край, г. Сочи, ул Володарского, д. 6, литера 14",52178,II кв. 2025,ООО СЗ РЕВЕРС,,26.05.2023,25.12.2027,369 828 ₽,,Комфорт,Нет
"Жилой комплекс ""Светский лес"" Литер 1","Краснодарский край, город Г Сочи, Краснодонская",58430,III кв. 2028,ООО СЗ НОВЫЕ ТЕХНОЛОГИИ,ТОЧНО,21.03.2024,31.03.2029,-,,Бизнес,Нет
ЖК OLIVIA,"Краснодарский край, г. Сочи, литера 10",50381,IV кв. 2025,ООО СЗ КОНДИ,Альпика Групп,03.02.2023,30.06.2026,450 985 ₽,44%,Бизнес,96
"г. Сочи, ул Володарского, д. 6, литера 9","Краснодарский край, г. Сочи, ул Володарского, д. 6, литера 9",52174,IV кв. 2025,ООО СЗ РЕВЕРС,,26.05.2023,25.12.2027,550 000 ₽,,Комфорт,Нет
ЖК Кислород,"Краснодарский край, г. Сочи, район Хостинский р-н",39549,IV кв. 2025,ООО СЗ КИСЛОРОД,AVA Group,13.04.2021,31.03.2026,358 842 ₽,30%,Бизнес,289
ЖК Кислород,"Краснодарский край, г. Сочи, район Хостинский р-н",39545,III кв. 2024,ООО СЗ КИСЛОРОД,AVA Group,13.04.2021,31.12.2024,310 110 ₽,0%,Бизнес,307
"г. Сочи, ул Володарского, д. 6, литера 5","Краснодарский край, г. Сочи, ул Володарского, д. 6, литера 5",52181,II кв. 2025,ООО СЗ РЕВЕРС,,26.05.2023,25.12.2027,259 153 ₽,,Комфорт,Нет
"г. Сочи, ул Старошоссейная, д. 5, корпус 5","Краснодарский край, г. Сочи, ул Старошоссейная, д. 5, корпус 5",1855,II кв. 2027,ООО МБЛ,Мебельщик,31.05.2019,30.06.2027,325 463 ₽,10%,Комфорт,179
"Жилой комплекс ""Светский лес"" Литер 12","Краснодарский край, город Г Сочи, Краснодонская",58421,II кв. 2028,ООО СЗ НОВЫЕ ТЕХНОЛОГИИ,ТОЧНО,21.03.2024,31.12.2028,-,-,Бизнес,408
"г. Сочи, район Адлерский р-н, ул Искры","Краснодарский край, г. Сочи, район Адлерский р-н, ул Искры",45099,I кв. 2025,ООО СЗ ГРОМИТУС,AVA Group,15.02.2022,30.06.2025,334 900 ₽,83%,Комфорт,142
ЖК Отражение г.Сочи,"Краснодарский край, г. Сочи, район Центральный, ул Пасечная",55274,III кв. 2025,ООО СЗ СТРОЙИНЖИНИРИНГ,,30.10.2023,30.12.2025,333 805 ₽,22%,Бизнес,272
"ЖК МОРЕ, Секция 3","Краснодарский край, город Сочи, район Центральный",53904,III кв. 2026,ООО СЗ КОНТИНЕНТ ИНВЕСТ,,28.08.2023,27.09.2026,535 000 ₽,19%,Бизнес,176
"г. Сочи, ул Володарского, д. 6, литера 11","Краснодарский край, г. Сочи, ул Володарского, д. 6, литера 11",52175,II кв. 2025,ООО СЗ РЕВЕРС,,26.05.2023,25.12.2027,333 507 ₽,,Комфорт,Нет
"г. Сочи, район Хостинский, улица Есауленко","Краснодарский край, г. Сочи, район Хостинский, улица Есауленко",57083,I кв. 2026,ООО СЗ ВОСТОК 314,,25.01.2024,21.06.2026,-,,Элитный,Нет
"Гостиничный комплекс ""AMAYA RESIDENCE""","Краснодарский край, г. Сочи, район Хостинский, проспект Курортный, д. 108г",46702,I кв. 2026,ООО СЗ КОЛИБРИ,Альпика Групп,24.06.2022,20.09.2026,705 000 ₽,,Элитный,Нет
"Жилой квартал ""Тюльпановка""","Краснодарский край, г. Сочи",22616,IV кв. 2025,ООО ГРАДРИЭЛТ,ГрадРиэлт,31.05.2019,30.09.2026,-,-,Комфорт,10
"Жилой комплекс ""Светский лес"" Литер 2","Краснодарский край, город Г Сочи, Краснодонская",58428,II кв. 2028,ООО СЗ НОВЫЕ ТЕХНОЛОГИИ,ТОЧНО,21.03.2024,31.12.2028,-,-,Бизнес,462
ЖК Горный Квартал,"Краснодарский край, г. Сочи, район Хостинский р-н",47271,III кв. 2026,ООО СЗ БИЗНЕСПРОЕКТ,AVA Group,26.07.2022,31.12.2026,338 706 ₽,5%,Комфорт,475
"г. Сочи, ул Володарского, д. 6, литера 19","Краснодарский край, г. Сочи, ул Володарского, д. 6, литера 19",52184,II кв. 2025,ООО СЗ РЕВЕРС,,26.05.2023,25.12.2027,-,,Комфорт,Нет
"Жилой квартал ""Тюльпановка""","Краснодарский край, г. Сочи",22619,IV кв. 2025,ООО ГРАДРИЭЛТ,ГрадРиэлт,31.05.2019,30.09.2026,-,-,Комфорт,10
"г. Сочи, ул Володарского, д. 6, литера 13","Краснодарский край, г. Сочи, ул Володарского, д. 6, литера 13",52177,IV кв. 2025,ООО СЗ РЕВЕРС,,26.05.2023,25.12.2027,-,,Комфорт,Нет
"Жилой квартал ""Тюльпановка""","Краснодарский край, г. Сочи",22613,IV кв. 2025,ООО ГРАДРИЭЛТ,ГрадРиэлт,31.05.2019,30.09.2026,-,-,Комфорт,10
"г. Сочи, район Хостинский, улица Есауленко","Краснодарский край, г. Сочи, район Хостинский, улица Есауленко",57079,I кв. 2026,ООО СЗ ВОСТОК 314,,25.01.2024,21.06.2026,950 000 ₽,,Элитный,Нет
"ЖК ""Чайные Холмы"" Литер 4","Краснодарский край, город Сочи",46476,III кв. 2025,ООО ЦИК,ЦЕНТРАЛЬНАЯ ИНВЕСТИЦИОННАЯ КОМПАНИЯ,08.06.2022,30.01.2026,-,-,Комфорт,169
"г. Сочи, ул Старошоссейная, д. 5, корпус 10","Краснодарский край, г. Сочи, ул Старошоссейная, д. 5, корпус 10",1859,II кв. 2027,ООО МБЛ,Мебельщик,31.05.2019,30.06.2027,454 710 ₽,6%,Комфорт,334
"Жилой комплекс ""Светский лес"" Литер 1","Краснодарский край, город Г Сочи, Краснодонская",58427,III кв. 2028,ООО СЗ НОВЫЕ ТЕХНОЛОГИИ,ТОЧНО,21.03.2024,31.12.2028,-,-,Бизнес,388
ЖК OLIVIA,"Краснодарский край, г. Сочи, литера 4",50375,III кв. 2024,ООО СЗ КОНДИ,Альпика Групп,03.02.2023,30.12.2024,432 400 ₽,45%,Бизнес,192
ЖК Кислород,"Краснодарский край, г. Сочи, район Хостинский р-н",39544,II кв. 2025,ООО СЗ КИСЛОРОД,AVA Group,13.04.2021,30.09.2025,445 816 ₽,29%,Бизнес,224
"город Сочи, Улица Крымская, д. 44","Краснодарский край, город Сочи, Улица Крымская, д. 44",59467,IV кв. 2024,ООО СЗ ГК СОЧИОЙЛСТРОЙ,,09.05.2024,30.06.2025,-,,Бизнес,Нет
"город Сочи, Адлерский район","Краснодарский край, город Сочи, Адлерский район",51634,III кв. 2026,ООО СЗ ВЕРТИКАЛЬ ИНВЕСТ,,25.04.2023,29.03.2027,651 730 ₽,,Бизнес,Нет
ЖК Горный Квартал,"Краснодарский край, г. Сочи, район Хостинский р-н",47269,III кв. 2026,ООО СЗ БИЗНЕСПРОЕКТ,AVA Group,26.07.2022,31.12.2026,301 530 ₽,17%,Комфорт,236
"г. Сочи, район Лазаревский","Краснодарский край, г. Сочи, район Лазаревский",55899,I кв. 2027,АО СЗ ЯКОРНАЯ ЩЕЛЬ,,29.11.2023,09.05.2029,-,,Бизнес,Нет
"г. Сочи, район Хостинский, улица Есауленко","Краснодарский край, г. Сочи, район Хостинский, улица Есауленко",57081,I кв. 2026,ООО СЗ ВОСТОК 314,,25.01.2024,21.06.2026,907 214 ₽,,Элитный,Нет
"Гостиничный комплекс ""Поляна Пик""","Краснодарский край, г. Сочи, район Адлерский р-н, ул Защитников Кавказа, д. 77, блок-секция 1,2,3",42290,II кв. 2025,ООО СЗ МЕГАСТРОЙ,Метрополис,20.08.2021,31.12.2025,1 116 623 ₽,,Элитный,Нет
"г. Сочи, район Лазаревский","Краснодарский край, г. Сочи, район Лазаревский",55896,I кв. 2027,АО СЗ ЯКОРНАЯ ЩЕЛЬ,,29.11.2023,09.05.2029,-,,Бизнес,Нет
ЖК ФЛОРА (3 этап),"Краснодарский край, г. Сочи, Хостинский внутригородской район, улица Искры, д. Участок 66/9, литера 4а",41454,II кв. 2024,ООО СЗ РАФСТРОЙ,Неометрия,02.07.2021,30.09.2024,-,,Комфорт,Нет
"город Сочи, Улица Крымская, д. 44","Краснодарский край, город Сочи, Улица Крымская, д. 44",59466,IV кв. 2024,ООО СЗ ГК СОЧИОЙЛСТРОЙ,,09.05.2024,30.06.2025,-,,Бизнес,Нет
ЖК Горный Квартал,"Краснодарский край, г. Сочи, район Хостинский р-н",47266,III кв. 2026,ООО СЗ БИЗНЕСПРОЕКТ,AVA Group,26.07.2022,31.12.2026,300 213 ₽,49%,Комфорт,216
"Жилой комплекс ""Светский лес"" Литер 3","Краснодарский край, город Г Сочи, Краснодонская",58429,III кв. 2028,ООО СЗ НОВЫЕ ТЕХНОЛОГИИ,ТОЧНО,21.03.2024,31.12.2028,-,-,Бизнес,408
"МФК ""Имеретинские высоты""","Краснодарский край, с. Веселое, д. 3",35891,I кв. 2026,ООО СЗ МАРГО,,27.05.2020,30.05.2026,124 771 ₽,37%,Комфорт,237
"ЖК ""Чайные Холмы"" Литер 3","Краснодарский край, город Сочи",46475,III кв. 2025,ООО ЦИК,ЦЕНТРАЛЬНАЯ ИНВЕСТИЦИОННАЯ КОМПАНИЯ,08.06.2022,30.01.2026,50 000 ₽,12%,Комфорт,169
"МФК ""Имеретинские высоты""","Краснодарский край, с. Веселое, д. 1",35893,I кв. 2026,ООО СЗ МАРГО,,27.05.2020,30.05.2026,257 257 ₽,32%,Комфорт,259
"Гостиничный комплекс ""AMAYA RESIDENCE""","Краснодарский край, г. Сочи, район Хостинский, проспект Курортный, д. 108г",46701,I кв. 2026,ООО СЗ КОЛИБРИ,Альпика Групп,24.06.2022,20.09.2026,939 434 ₽,,Элитный,Нет
"г. Сочи, район Лазаревский","Краснодарский край, г. Сочи, район Лазаревский",55898,I кв. 2027,АО СЗ ЯКОРНАЯ ЩЕЛЬ,,29.11.2023,09.05.2029,-,,Бизнес,Нет
город Сочи,"Краснодарский край, город Сочи",46946,I кв. 2025,ООО СЗ КРАСМАШЕВСКИЙ,,07.07.2022,30.07.2025,-,,Элитный,Нет
